%YAML 1.1
%TAG !u! tag:unity3d.com,2011:
--- !u!114 &11400000
MonoBehaviour:
  m_ObjectHideFlags: 0
  m_CorrespondingSourceObject: {fileID: 0}
  m_PrefabInternal: {fileID: 0}
  m_GameObject: {fileID: 0}
  m_Enabled: 1
  m_EditorHideFlags: 0
  m_Script: {fileID: 11500000, guid: b749867b879f87543b68ee70c619bb58, type: 3}
  m_Name: Wave_03
  m_EditorClassIdentifier: 
  spawnOptions:
  - amount: 4
    objectPool: 0
