%YAML 1.1
%TAG !u! tag:unity3d.com,2011:
--- !u!114 &11400000
MonoBehaviour:
  m_ObjectHideFlags: 0
  m_CorrespondingSourceObject: {fileID: 0}
  m_PrefabInternal: {fileID: 0}
  m_GameObject: {fileID: 0}
  m_Enabled: 1
  m_EditorHideFlags: 0
  m_Script: {fileID: 11500000, guid: 02b1c930c612dbc469d258783cb8be34, type: 3}
  m_Name: __actions_buggy_in_Throttle
  m_EditorClassIdentifier: 
  changeTolerance: 0.000001
  fullPath: /actions/buggy/in/Throttle
  actionSet: {fileID: 11400000, guid: a8821e8b9d5cefa4fb618de14c801391, type: 2}
  direction: 0
