%YAML 1.1
%TAG !u! tag:unity3d.com,2011:
--- !u!114 &11400000
MonoBehaviour:
  m_ObjectHideFlags: 0
  m_CorrespondingSourceObject: {fileID: 0}
  m_PrefabInternal: {fileID: 0}
  m_GameObject: {fileID: 0}
  m_Enabled: 1
  m_EditorHideFlags: 0
  m_Script: {fileID: 11500000, guid: 0903f474b261d274095e5007f36f213c, type: 3}
  m_Name: __actions_default
  m_EditorClassIdentifier: 
  allActions:
  - {fileID: 11400000, guid: fa3af6cbb6f6c334892b6bdfc30e410c, type: 2}
  - {fileID: 11400000, guid: ccdb97128c6a44a44bec9e9a0934508c, type: 2}
  - {fileID: 11400000, guid: 614b0937185b0544ebf4c836027b3b36, type: 2}
  - {fileID: 11400000, guid: d979ca93596ff0946bfb40781113c321, type: 2}
  - {fileID: 11400000, guid: dc0cbb1eae6682049ad25d0b809af152, type: 2}
  - {fileID: 11400000, guid: bf40ac59ac6512344a59066ac3ae6cb8, type: 2}
  - {fileID: 11400000, guid: 1f4a1c85d9562324bb065a7b74fd0dd0, type: 2}
  - {fileID: 11400000, guid: 94196201696990f4eb9dd53bec18fca6, type: 2}
  - {fileID: 11400000, guid: e8a8837a207bfd84b978197e099f1745, type: 2}
  - {fileID: 11400000, guid: b7729226b557fba4bb0c6a4950efa766, type: 2}
  - {fileID: 11400000, guid: 46462783c9dc2344ea7a3c6204bed4b5, type: 2}
  - {fileID: 11400000, guid: 1fc6de514377fa243affa8c34ec735d1, type: 2}
  nonVisualInActions:
  - {fileID: 11400000, guid: fa3af6cbb6f6c334892b6bdfc30e410c, type: 2}
  - {fileID: 11400000, guid: ccdb97128c6a44a44bec9e9a0934508c, type: 2}
  - {fileID: 11400000, guid: 614b0937185b0544ebf4c836027b3b36, type: 2}
  - {fileID: 11400000, guid: d979ca93596ff0946bfb40781113c321, type: 2}
  - {fileID: 11400000, guid: 94196201696990f4eb9dd53bec18fca6, type: 2}
  - {fileID: 11400000, guid: e8a8837a207bfd84b978197e099f1745, type: 2}
  - {fileID: 11400000, guid: b7729226b557fba4bb0c6a4950efa766, type: 2}
  - {fileID: 11400000, guid: 46462783c9dc2344ea7a3c6204bed4b5, type: 2}
  visualActions:
  - {fileID: 11400000, guid: dc0cbb1eae6682049ad25d0b809af152, type: 2}
  - {fileID: 11400000, guid: bf40ac59ac6512344a59066ac3ae6cb8, type: 2}
  - {fileID: 11400000, guid: 1f4a1c85d9562324bb065a7b74fd0dd0, type: 2}
  poseActions:
  - {fileID: 11400000, guid: dc0cbb1eae6682049ad25d0b809af152, type: 2}
  - {fileID: 11400000, guid: bf40ac59ac6512344a59066ac3ae6cb8, type: 2}
  - {fileID: 11400000, guid: 1f4a1c85d9562324bb065a7b74fd0dd0, type: 2}
  skeletonActions:
  - {fileID: 11400000, guid: bf40ac59ac6512344a59066ac3ae6cb8, type: 2}
  - {fileID: 11400000, guid: 1f4a1c85d9562324bb065a7b74fd0dd0, type: 2}
  outActionArray:
  - {fileID: 11400000, guid: 1fc6de514377fa243affa8c34ec735d1, type: 2}
  fullPath: /actions/default
  usage: single
  inActions: {fileID: 11400000, guid: ce351e033342f0d418b096ec1fe06860, type: 2}
  outActions: {fileID: 11400000, guid: 524d1d87fc950334bb895e97d493cf7b, type: 2}
