%YAML 1.1
%TAG !u! tag:unity3d.com,2011:
--- !u!114 &11400000
MonoBehaviour:
  m_ObjectHideFlags: 0
  m_CorrespondingSourceObject: {fileID: 0}
  m_PrefabInternal: {fileID: 0}
  m_GameObject: {fileID: 0}
  m_Enabled: 1
  m_EditorHideFlags: 0
  m_Script: {fileID: 11500000, guid: 81c140078595f0b44805574037735825, type: 3}
  m_Name: SteamVR_Input_ActionSet_platformer_In
  m_EditorClassIdentifier: 
  actionSet: {fileID: 0}
  listDirection: 0
  actions:
  - {fileID: 11400000, guid: 20fb39fae41153f4c8cce022ac941757, type: 2}
  - {fileID: 11400000, guid: 074930b07d01929419ccb9998a047d60, type: 2}
  Move: {fileID: 11400000, guid: 20fb39fae41153f4c8cce022ac941757, type: 2}
  Jump: {fileID: 11400000, guid: 074930b07d01929419ccb9998a047d60, type: 2}
