%YAML 1.1
%TAG !u! tag:unity3d.com,2011:
--- !u!21 &2100000
Material:
  serializedVersion: 6
  m_ObjectHideFlags: 0
  m_CorrespondingSourceObject: {fileID: 0}
  m_PrefabInternal: {fileID: 0}
  m_Name: LPWaterVR
  m_Shader: {fileID: 4800000, guid: 8165be4dd0b12774d80426d906df9c38, type: 3}
<<<<<<< HEAD
  m_ShaderKeywords: LPW_HQFOAM _DISTORT_ON _EDGEBLEND_ON _EMISSION _HQFOAM_ON _LIGHTABS_ON
    _SHADING_FLAT _WAVES_OFF _ZWRITE_ON
=======
  m_ShaderKeywords: LPW_FOAM _DISTORT_ON _EDGEBLEND_ON _EMISSION _SHADING_FLAT _WAVES_OFF
    _ZWRITE_ON
>>>>>>> Konsti
  m_LightmapFlags: 1
  m_EnableInstancingVariants: 0
  m_DoubleSidedGI: 0
  m_CustomRenderQueue: 2501
  stringTagMap:
    QUEUE: AlphaTest+50
  disabledShaderPasses: []
  m_SavedProperties:
    serializedVersion: 3
    m_TexEnvs:
    - _BumpTex:
        m_Texture: {fileID: 2800000, guid: 5172883f19560c34db24c164f824d406, type: 3}
        m_Scale: {x: 1, y: 1}
        m_Offset: {x: 0, y: 0}
    - _FresnelTex:
        m_Texture: {fileID: 2800000, guid: bbe71c065be7eca47b24d1e03bf041b3, type: 3}
        m_Scale: {x: 1, y: 1}
        m_Offset: {x: 0, y: 0}
    - _NoiseTex:
        m_Texture: {fileID: 2800000, guid: 6a1c221a7d11eaa4e875ae74a888d906, type: 3}
        m_Scale: {x: 1, y: 1}
        m_Offset: {x: 0, y: 0}
    - _ReflectionTex:
        m_Texture: {fileID: 0}
        m_Scale: {x: 1, y: 1}
        m_Offset: {x: 0, y: 0}
    - _RefractionTex:
        m_Texture: {fileID: 0}
        m_Scale: {x: 1, y: 1}
        m_Offset: {x: 0, y: 0}
    m_Floats:
    - _Absorption: 2.5
    - _BumpScale: 35
<<<<<<< HEAD
    - _BumpScale_: 70
=======
<<<<<<< HEAD
    - _BumpScale_: 420
=======
    - _BumpScale_: 81.899994
>>>>>>> master
>>>>>>> Kathy
    - _BumpSpeed: 0.2
    - _Cull: 0
    - _Cull_: 2
    - _Diffuse: 0
    - _Direction: 180
    - _Distort: 1
    - _Distortion: 1
    - _EdgeBlend: 1
    - _EnableShadows: 0
    - _FoamScale: 20
    - _FoamSpeed: 0.3
<<<<<<< HEAD
    - _FoamSpread: 1
    - _FresPower: 1.5
    - _HQFoam: 0
    - _Height: 0.4
    - _Height_: 4.8
    - _Length: 4
    - _LightAbs: 0
=======
    - _FoamSpread: 1.07
    - _FresPower: 2
    - _Gloss: 0.6
    - _HQFoam: 1
    - _Height: 3.18
    - _Height_: 6.36
    - _Length: 6.01
    - _LightAbs: 1
>>>>>>> master
    - _NormalOffset: 1
    - _Opacity: 0.526
    - _PointLights: 0
<<<<<<< HEAD
    - _RHeight: 0.2
    - _RHeight_: 2.4
    - _RSpeed: 0.8
    - _RSpeed_: 9.6
    - _Reflection: 1.2
    - _Refraction: 2
    - _Scale: 1
    - _Scale_: 12
=======
    - _RHeight: 0.23
    - _RHeight_: 0.46
    - _RSpeed: 1.9
    - _RSpeed_: 3.8
    - _Reflection: 1.2
    - _Refraction: 2
    - _Scale: 1
<<<<<<< HEAD
    - _Scale_: 2
=======
    - _Scale_: 2.34
>>>>>>> master
>>>>>>> Kathy
    - _Shading: 0
    - _Shadow: 0.223
    - _ShoreDistance: 1.13
    - _ShoreIntensity: 0.16
    - _Smoothness: 1
    - _Specular: 111
    - _Speed: 0.5
<<<<<<< HEAD
    - _Speed_: 1
=======
<<<<<<< HEAD
    - _Speed_: 6
    - _Steepness: 0.15
    - _Stretch: 10
    - _TexSize_: 768
    - _Time_: 0
    - _TransformScale_: 12
=======
    - _Speed_: 1.17
>>>>>>> Kathy
    - _Steepness: 0.545
    - _Stretch: 10
    - _TexSize_: 128
    - _Time_: 0
<<<<<<< HEAD
    - _TransformScale_: 2
=======
    - _TransformScale_: 2.34
>>>>>>> master
>>>>>>> Kathy
    - _Waves: 0
    - _ZWrite: 1
    m_Colors:
    - _Color: {r: 0, g: 0.6006591, b: 0.75735295, a: 1}
<<<<<<< HEAD
    - _DeepColor: {r: 0, g: 0.20955881, b: 0.41911763, a: 1}
    - _Direction_: {r: -1, g: -0.00000008742278, b: -7.2000003, a: -0.000000629444}
    - _FresColor: {r: 0.36689016, g: 0.52222586, b: 0.5735294, a: 1}
=======
    - _DeepColor: {r: 0, g: 0.07476634, b: 0.1509434, a: 1}
    - _Direction_: {r: -1, g: -0.00000008742278, b: -6.5509005, a: -0.0000005726979}
    - _FresColor: {r: 0, g: 0.50689954, b: 0.6792453, a: 1}
>>>>>>> master
    - _ShoreColor: {r: 1, g: 1, b: 1, a: 1}
<<<<<<< HEAD
    - _SpecColor: {r: 1, g: 0.95096207, b: 0.504717, a: 1}
    - _Sun: {r: -0.8611668, g: 0.3871222, b: -0.3294363, a: 0}
=======
    - _SpecColor: {r: 0.6764706, g: 0.6359274, b: 0.2785467, a: 1}
    - _Sun: {r: 0.3213938, g: 0.76604444, b: -0.5566705, a: 0}
>>>>>>> Konsti
    - _SunColor: {r: 1, g: 0.95686275, b: 0.8392157, a: 1}
