%YAML 1.1
%TAG !u! tag:unity3d.com,2011:
--- !u!1001 &100100000
Prefab:
  m_ObjectHideFlags: 1
  serializedVersion: 2
  m_Modification:
    m_TransformParent: {fileID: 0}
    m_Modifications: []
    m_RemovedComponents: []
  m_SourcePrefab: {fileID: 0}
  m_RootGameObject: {fileID: 1679502013789404}
  m_IsPrefabAsset: 1
--- !u!1 &1679502013789404
GameObject:
  m_ObjectHideFlags: 0
  m_CorrespondingSourceObject: {fileID: 0}
  m_PrefabInternal: {fileID: 100100000}
  serializedVersion: 6
  m_Component:
  - component: {fileID: 4310965367283826}
  - component: {fileID: 114812552189452006}
  m_Layer: 0
  m_Name: ItemPack_Shot
  m_TagString: Untagged
  m_Icon: {fileID: 0}
  m_NavMeshLayer: 0
  m_StaticEditorFlags: 0
  m_IsActive: 1
--- !u!4 &4310965367283826
Transform:
  m_ObjectHideFlags: 1
  m_CorrespondingSourceObject: {fileID: 0}
  m_PrefabInternal: {fileID: 100100000}
  m_GameObject: {fileID: 1679502013789404}
  m_LocalRotation: {x: 0, y: 0, z: 0, w: 1}
  m_LocalPosition: {x: 0.10587172, y: 0.8742226, z: -10.517868}
  m_LocalScale: {x: 1, y: 1, z: 1}
  m_Children: []
  m_Father: {fileID: 0}
  m_RootOrder: 0
  m_LocalEulerAnglesHint: {x: 0, y: 0, z: 0}
--- !u!114 &114812552189452006
MonoBehaviour:
  m_ObjectHideFlags: 1
  m_CorrespondingSourceObject: {fileID: 0}
  m_PrefabInternal: {fileID: 100100000}
  m_GameObject: {fileID: 1679502013789404}
  m_Enabled: 1
  m_EditorHideFlags: 0
  m_Script: {fileID: 11500000, guid: c9f83db71b9a6764abf964ab7679f035, type: 3}
  m_Name: 
  m_EditorClassIdentifier: 
  name: Gun3
  packageType: 1
  itemPrefab: {fileID: 1783483417776350, guid: 8c26f654f03f33f408b877a78f0a1ae7, type: 2}
  otherHandItemPrefab: {fileID: 0}
  previewPrefab: {fileID: 1320530484251910, guid: 26ae9c7e58600cf4cbda87237abb1043,
    type: 2}
  fadedPreviewPrefab: {fileID: 1320530484251910, guid: d46e19dc4d89df84fbc06f6bba3eed72,
    type: 2}
